﻿{
	"TargetTraits":
	{
		"Shape":["circle", "square"],
		"Color":"black",
		"Sheath":["spikes", "short"],
		"Pattern":"dots"
	},

	"EnemiesTraits":
	{
		"Shape":
		[
			"circle", "circle", "circle", "circle", "circle",
			"square",
			"triangle"
		],
		"Color":
		[
			"black", "black", "black", "black", "black", "black",
			"gray", "gray", "gray",
			"white"
		],
		"Sheath":
		{
			"Type":
			[
				"spikes",
				"bubbles",
				"hairs"
			],
			"Mode":
			[
				"short",
				"long"
			]
		},
		"Pattern":
		[
			"dots", "dots", "dots"
		]
	}
}
